ans =
   1.0e-09 *
   0.638945335392150
   0.636944581224872
   0.414543029354983
   0.855823158970471
   0.358907138843617
   0.573612275902988
   0.813223708064492
ans =
   1.0e-15 *
  0.067168549142242 - 0.132718579028044i  0.352837197903826 + 0.128672280886946i
 -0.140748719840193 - 0.078819283110508i  0.213938054157093 - 0.090079180697723i
 -0.139898769634641 + 0.296256218049828i  0.238650842317917 - 0.068366819549960i
  0.081998390186396 - 0.127692149603242i  0.076990854907837 + 0.327993560745583i
 -0.090859845167431 + 0.158521431994242i  0.563846556890087 - 0.025775842600690i
  0.101672430279359 - 0.014247092141057i -0.280408677139889 + 0.058283558758868i
 -0.063701293699309 - 0.032796705666971i -0.290755409855264 + 0.571419525659151i
