ans =
   1.0e-08 *
   0.095481059943002
   0.342514348579392
   0.025857392131599
   0.125852101193414
   0.025223119741135
   0.236673941027195
ans =
   1.0e-10 *
  -0.069881045394737   0.794394550140964
   0.001220334675295   0.024760193895190
   0.222125096094317  -0.282225354197863
  -0.015388276627588  -0.144619871633722
  -0.362236907136548   0.358566509817138
   0.030804399554551   0.528148635936532
